# Blender v2.79 (sub 6) OBJ File: 'floor_tile.blend'
# www.blender.org
o Cube
v 1.000000 -0.091000 -0.991000
v 0.991000 -0.100000 -0.991000
v 0.991000 -0.091000 -1.000000
v 1.000000 -0.091000 0.991000
v 0.991000 -0.091000 1.000000
v 0.991000 -0.100000 0.991000
v -0.991000 -0.091000 1.000000
v -1.000000 -0.091000 0.991000
v -0.991000 -0.100000 0.991000
v -0.991000 -0.091000 -1.000000
v -0.991000 -0.100000 -0.991000
v -1.000000 -0.091000 -0.991000
v 0.980969 0.102664 -1.001743
v 0.984698 0.133580 -0.990611
v 1.000000 0.112543 -0.990999
v 0.990999 0.102427 1.000001
v 0.999999 0.099134 0.991001
v 0.990999 0.126640 0.991001
v -1.000000 0.107983 0.991000
v -0.991000 0.095304 1.000000
v -0.991000 0.105351 0.991000
v -1.000000 0.102145 -0.991000
v -0.991000 0.107947 -0.991000
v -0.991000 0.100225 -1.000000
v 1.000000 -0.091000 -0.660667
v 1.000000 -0.091000 -0.330333
v 1.000000 -0.091000 0.000000
v 1.000000 -0.091000 0.330333
v 1.000000 -0.091000 0.660667
v 0.991000 -0.100000 0.660667
v 0.991000 -0.100000 0.330333
v 0.991000 -0.100000 0.000000
v 0.991000 -0.100000 -0.330333
v 0.991000 -0.100000 -0.660667
v -1.000000 -0.091000 0.660666
v -1.000000 -0.091000 0.330333
v -1.000000 -0.091000 -0.000000
v -1.000000 -0.091000 -0.330334
v -1.000000 -0.091000 -0.660667
v -0.991000 -0.100000 -0.660667
v -0.991000 -0.100000 -0.330334
v -0.991000 -0.100000 -0.000000
v -0.991000 -0.100000 0.330333
v -0.991000 -0.100000 0.660666
v 0.991000 0.132164 -0.660666
v 0.991000 0.101447 -0.330333
v 0.991000 0.115248 0.000001
v 0.991000 0.107903 0.330334
v 0.991000 0.111192 0.660667
v 1.000000 0.095063 0.660667
v 1.000000 0.089186 0.330334
v 1.000000 0.103766 0.000001
v 1.000000 0.087291 -0.330333
v 1.000000 0.120356 -0.660666
v -0.991000 0.100583 0.660666
v -0.991000 0.124536 0.330333
v -0.991000 0.119193 -0.000000
v -0.991000 0.113051 -0.330334
v -0.991000 0.104775 -0.660667
v -1.000000 0.099325 -0.660667
v -1.000000 0.096056 -0.330333
v -1.000000 0.118117 -0.000000
v -1.000000 0.113870 0.330333
v -1.000000 0.095190 0.660666
v 0.594600 -0.100000 -0.991000
v 0.198200 -0.100000 -0.991000
v -0.198200 -0.100000 -0.991000
v -0.594600 -0.100000 -0.991000
v -0.594600 -0.091000 -1.000000
v -0.198200 -0.091000 -1.000000
v 0.198200 -0.091000 -1.000000
v 0.594600 -0.091000 -1.000000
v 0.594600 -0.091000 1.000000
v 0.198200 -0.091000 1.000000
v -0.198200 -0.091000 1.000000
v -0.594600 -0.091000 1.000000
v -0.594600 -0.100000 0.991000
v -0.198200 -0.100000 0.991000
v 0.198200 -0.100000 0.991000
v 0.594600 -0.100000 0.991000
v 0.594600 0.104014 -1.000000
v 0.198200 0.091951 -1.000000
v -0.198200 0.124328 -1.000000
v -0.594600 0.113144 -1.000000
v -0.594600 0.119638 -0.991000
v -0.198200 0.119258 -0.991000
v 0.198200 0.117967 -0.991000
v 0.594600 0.122642 -0.991000
v 0.594599 0.126666 0.991000
v 0.198199 0.136502 0.991000
v -0.198200 0.115004 0.991000
v -0.594600 0.110771 0.991000
v -0.594600 0.103201 1.000000
v -0.198200 0.121245 1.000000
v 0.198199 0.125593 1.000000
v 0.594599 0.123376 1.000000
v -0.594600 0.117927 -0.660667
v -0.198200 0.102427 -0.660666
v 0.198200 0.125377 -0.660666
v 0.594600 0.128583 -0.660666
v -0.594600 0.121056 -0.330333
v -0.198200 0.150802 -0.330333
v 0.198200 0.107596 -0.330333
v 0.594600 0.107735 -0.330333
v -0.594600 0.108096 -0.000000
v -0.198200 0.154427 0.000000
v 0.198200 0.168623 0.000000
v 0.594600 0.149443 0.000000
v -0.594600 0.111145 0.330333
v -0.198200 0.133374 0.330333
v 0.198200 0.145199 0.330334
v 0.594600 0.101725 0.330334
v -0.594600 0.104270 0.660667
v -0.198200 0.109281 0.660667
v 0.198200 0.126590 0.660667
v 0.594600 0.138845 0.660667
v 0.594600 -0.100000 -0.660667
v 0.198200 -0.100000 -0.660667
v -0.198200 -0.100000 -0.660667
v -0.594600 -0.100000 -0.660667
v 0.594600 -0.100000 -0.330333
v 0.198200 -0.100000 -0.330333
v -0.198200 -0.100000 -0.330333
v -0.594600 -0.100000 -0.330334
v 0.594600 -0.100000 -0.000000
v 0.198200 -0.100000 -0.000000
v -0.198200 -0.100000 -0.000000
v -0.594600 -0.100000 -0.000000
v 0.594600 -0.100000 0.330333
v 0.198200 -0.100000 0.330333
v -0.198200 -0.100000 0.330333
v -0.594600 -0.100000 0.330333
v 0.594600 -0.100000 0.660667
v 0.198200 -0.100000 0.660667
v -0.198200 -0.100000 0.660667
v -0.594600 -0.100000 0.660666
vt 0.100426 0.371476
vt 0.041555 0.344446
vt 0.100426 0.344446
vt 0.052093 0.110183
vt 0.096818 0.056514
vt 0.096818 0.110183
vt 0.038881 0.292713
vt 0.011851 0.341772
vt 0.011851 0.292713
vt 0.474262 0.457830
vt 0.346141 0.351063
vt 0.474262 0.351063
vt 0.100426 0.017711
vt 0.041555 0.044741
vt 0.041555 0.017711
vt 0.365616 0.341772
vt 0.366953 0.341772
vt 0.365616 0.343109
vt 0.365616 0.047414
vt 0.365616 0.046077
vt 0.366953 0.047414
vt 0.040218 0.017711
vt 0.041555 0.016374
vt 0.041555 0.371476
vt 0.041555 0.372812
vt 0.040218 0.371476
vt 0.335913 0.344446
vt 0.335913 0.343109
vt 0.337250 0.344446
vt 0.335913 0.044741
vt 0.337250 0.044741
vt 0.335913 0.046077
vt 0.038881 0.047414
vt 0.038881 0.046077
vt 0.040218 0.047414
vt 0.038881 0.341772
vt 0.040218 0.341772
vt 0.038881 0.343109
vt 0.366953 0.096474
vt 0.365616 0.096474
vt 0.320439 0.056514
vt 0.321657 0.110183
vt 0.320439 0.110183
vt 0.337250 0.371475
vt 0.335913 0.371475
vt 0.100426 0.016374
vt 0.338586 0.047414
vt 0.010515 0.292713
vt 0.011851 0.343109
vt 0.986746 0.457830
vt 0.989655 0.351062
vt 0.989655 0.457830
vt 0.041555 0.343109
vt 0.100426 0.343109
vt 0.474262 0.348154
vt 0.346141 0.884900
vt 0.343232 0.991668
vt 0.343232 0.884900
vt 0.338586 0.096474
vt 0.338586 0.341772
vt 0.365616 0.292713
vt 0.338586 0.243653
vt 0.365616 0.243653
vt 0.365616 0.194593
vt 0.338586 0.145533
vt 0.365616 0.145533
vt 0.346141 0.457830
vt 0.343232 0.351063
vt 0.343232 0.564598
vt 0.343232 0.457830
vt 0.346141 0.671365
vt 0.346141 0.564598
vt 0.346141 0.778133
vt 0.343232 0.671365
vt 0.343232 0.778133
vt 0.986746 0.991668
vt 0.989655 0.884900
vt 0.989655 0.991668
vt 0.986746 0.778132
vt 0.986746 0.884900
vt 0.989655 0.671365
vt 0.989655 0.778133
vt 0.986746 0.564597
vt 0.986746 0.671365
vt 0.989655 0.564597
vt 0.011851 0.096474
vt 0.010515 0.047414
vt 0.011851 0.047414
vt 0.011851 0.145533
vt 0.010515 0.096474
vt 0.011851 0.194593
vt 0.010515 0.145533
vt 0.011851 0.243653
vt 0.010515 0.194593
vt 0.010515 0.243653
vt 0.366953 0.292713
vt 0.366953 0.194593
vt 0.366953 0.243653
vt 0.366953 0.145533
vt 0.346141 0.991668
vt 0.474262 0.884900
vt 0.474262 0.991668
vt 0.474262 0.778133
vt 0.474262 0.671365
vt 0.474262 0.564598
vt 0.038881 0.096474
vt 0.038881 0.145533
vt 0.038881 0.243653
vt 0.275715 0.056514
vt 0.275715 0.110183
vt 0.230990 0.056514
vt 0.230990 0.110183
vt 0.186266 0.056514
vt 0.141542 0.110183
vt 0.186266 0.110183
vt 0.141542 0.056514
vt 0.096818 0.324860
vt 0.141542 0.271191
vt 0.141542 0.324860
vt 0.096818 0.271191
vt 0.141542 0.217522
vt 0.096818 0.217522
vt 0.141542 0.163852
vt 0.096818 0.163852
vt 0.186266 0.324860
vt 0.186266 0.271191
vt 0.186266 0.217522
vt 0.186266 0.163852
vt 0.230990 0.324860
vt 0.230990 0.271191
vt 0.230990 0.217522
vt 0.230990 0.163852
vt 0.275715 0.324860
vt 0.275715 0.271191
vt 0.275715 0.217522
vt 0.275715 0.163852
vt 0.320439 0.324860
vt 0.320439 0.271191
vt 0.320439 0.217522
vt 0.320439 0.163852
vt 0.858625 0.564597
vt 0.730504 0.564597
vt 0.858625 0.457830
vt 0.602383 0.564597
vt 0.730504 0.457830
vt 0.602383 0.457830
vt 0.858625 0.671365
vt 0.602383 0.671365
vt 0.730504 0.671365
vt 0.858625 0.778133
vt 0.730504 0.778133
vt 0.602383 0.778133
vt 0.730504 0.884900
vt 0.858625 0.884900
vt 0.602383 0.884900
vt 0.858625 0.991668
vt 0.602383 0.991668
vt 0.730504 0.991668
vt 0.986746 0.351062
vt 0.858625 0.348153
vt 0.986746 0.348153
vt 0.858625 0.351062
vt 0.730504 0.348154
vt 0.602383 0.351062
vt 0.730504 0.351062
vt 0.602383 0.348154
vt 0.277041 0.343109
vt 0.277041 0.344446
vt 0.218170 0.343109
vt 0.218170 0.344446
vt 0.159298 0.343109
vt 0.159298 0.344446
vt 0.277041 0.017711
vt 0.335913 0.016374
vt 0.335913 0.017711
vt 0.218170 0.016374
vt 0.277041 0.016374
vt 0.218170 0.017711
vt 0.159298 0.016374
vt 0.159298 0.017711
vt 0.321657 0.324860
vt 0.321657 0.271191
vt 0.321657 0.217522
vt 0.321657 0.163852
vt 0.277041 0.044741
vt 0.159298 0.044741
vt 0.100426 0.044741
vt 0.052093 0.271191
vt 0.052093 0.217522
vt 0.052093 0.163852
vt 0.277041 0.371476
vt 0.159298 0.371476
vt 0.052093 0.056514
vt 0.321657 0.056514
vt 0.338586 0.046077
vt 0.010515 0.341772
vt 0.040218 0.044741
vt 0.346141 0.348154
vt 0.338586 0.292713
vt 0.338586 0.194593
vt 0.038881 0.194593
vt 0.218170 0.044741
vt 0.052093 0.324860
vt 0.218170 0.371476
vn 0.0000 -0.3827 -0.9239
vn -0.3306 0.3580 -0.8732
vn -0.0132 0.4555 -0.8901
vn 0.0000 -0.9239 0.3827
vn -0.3827 -0.9239 0.0000
vn 0.0000 -1.0000 0.0000
vn -0.8711 0.4910 0.0045
vn -0.8756 -0.3416 -0.3416
vn -0.9239 -0.3827 0.0000
vn -0.0116 0.9999 0.0011
vn 0.1266 0.9019 0.4128
vn -0.0189 0.9440 0.3293
vn 0.0000 -0.3827 0.9239
vn -0.3016 0.2647 0.9159
vn -0.3416 -0.3416 0.8756
vn 0.8759 -0.3345 -0.3476
vn 0.3416 -0.8756 -0.3416
vn 0.3489 -0.3360 -0.8748
vn 0.8756 -0.3416 0.3416
vn 0.3416 -0.3416 0.8756
vn 0.3416 -0.8756 0.3416
vn -0.8756 -0.3416 0.3416
vn -0.3416 -0.8756 0.3416
vn -0.3416 -0.3416 -0.8756
vn -0.3416 -0.8756 -0.3416
vn 0.2170 0.1386 -0.9663
vn 0.3673 0.7803 -0.5062
vn 0.8284 0.2758 -0.4875
vn 0.3831 0.1647 0.9089
vn 0.9249 0.1374 0.3545
vn 0.5043 0.7286 0.4634
vn -0.5438 0.7333 0.4080
vn -0.8318 0.4362 -0.3433
vn -0.2714 0.9087 -0.3171
vn 0.3827 -0.9239 0.0000
vn 0.9239 -0.3827 0.0000
vn 0.0000 -0.9239 -0.3827
vn 0.5308 0.8468 -0.0323
vn 0.9678 0.2515 -0.0028
vn -0.0197 0.9536 -0.3004
vn -0.0123 0.4185 0.9081
vn -0.2903 0.9569 -0.0001
vn 0.9637 0.2670 0.0064
vn 0.9759 0.2181 0.0028
vn -0.2662 0.9638 0.0133
vn -0.9360 0.3517 0.0102
vn -0.8765 0.4814 0.0042
vn -0.0559 0.9984 -0.0031
vn -0.4014 0.9155 0.0255
vn -0.5222 0.8525 -0.0231
vn -0.7446 0.6675 -0.0022
vn -0.9712 0.2380 -0.0106
vn 0.9438 0.3301 0.0122
vn 0.4960 0.8680 0.0223
vn 0.4399 0.8973 0.0353
vn 0.9432 0.3322 -0.0032
vn 0.5264 0.8502 0.0070
vn 0.4515 0.8922 -0.0040
vn -0.0000 1.0000 0.0017
vn -0.0308 0.9995 -0.0122
vn -0.0357 0.9991 0.0229
vn -0.0119 0.9998 0.0165
vn 0.0725 0.9973 0.0135
vn 0.0109 0.9986 0.0522
vn 0.0291 0.9992 -0.0280
vn -0.0532 0.9969 0.0582
vn -0.0290 0.9993 0.0237
vn -0.0339 0.9992 0.0217
vn 0.0688 0.9976 -0.0057
vn -0.0693 0.9970 0.0325
vn 0.0262 0.9990 -0.0368
vn 0.0130 0.9997 -0.0197
vn 0.0370 0.9961 -0.0796
vn -0.0035 0.9953 -0.0969
vn -0.0238 0.9994 0.0252
vn -0.0112 0.9996 0.0250
vn -0.0020 0.9999 -0.0102
vn -0.0134 0.8402 -0.5420
vn 0.0164 0.9668 0.2550
vn -0.0052 0.8076 -0.5897
vn 0.0018 0.5723 0.8200
vn -0.0001 0.9821 0.1883
vn -0.0051 0.3456 0.9384
vn -0.0202 0.9532 -0.3016
vn -0.0133 0.9126 0.4086
vn -0.0099 0.8859 0.4638
vn -0.0032 0.2242 -0.9745
vn -0.0019 0.1640 -0.9864
vn 0.0351 0.8680 -0.4953
vn -0.0009 -0.3833 -0.9236
s 1
f 69/1/1 24/2/2 84/3/3
f 77/4/4 44/5/5 136/6/6
f 60/7/7 12/8/8 39/9/9
f 113/10/10 21/11/11 92/12/12
f 76/13/13 20/14/14 7/15/15
f 1/16/16 2/17/17 3/18/18
f 4/19/19 5/20/20 6/21/21
f 7/15/15 8/22/22 9/23/23
f 10/24/24 11/25/25 12/26/8
f 13/27/26 14/28/27 15/29/28
f 16/30/29 17/31/30 18/32/31
f 19/33/32 20/34/14 21/35/11
f 22/36/33 23/37/34 24/38/2
f 4/19/19 30/39/35 29/40/36
f 11/41/25 69/42/1 68/43/37
f 13/27/26 1/44/16 3/45/18
f 7/15/15 77/46/4 76/13/13
f 17/47/30 5/20/20 4/19/19
f 12/8/8 40/48/5 39/9/9
f 20/14/14 8/22/22 7/15/15
f 12/8/8 24/38/2 10/49/24
f 49/50/38 17/51/30 50/52/39
f 84/3/3 23/53/34 85/54/40
f 21/11/11 93/55/41 92/12/12
f 59/56/42 22/57/33 60/58/7
f 50/59/39 4/19/19 29/40/36
f 15/60/28 25/61/36 1/16/16
f 25/61/36 53/62/43 26/63/36
f 53/62/43 27/64/36 26/63/36
f 27/64/36 51/65/44 28/66/36
f 51/65/44 29/40/36 28/66/36
f 55/67/45 19/68/32 21/11/11
f 55/67/45 63/69/46 64/70/47
f 57/71/48 63/69/46 56/72/49
f 58/73/50 62/74/51 57/71/48
f 59/56/42 61/75/52 58/73/50
f 14/76/27 54/77/53 15/78/28
f 46/79/54 54/77/53 45/80/55
f 46/79/54 52/81/56 53/82/43
f 48/83/57 52/81/56 47/84/58
f 48/83/57 50/52/39 51/85/44
f 35/86/9 9/87/23 8/88/22
f 36/89/9 44/90/5 35/86/9
f 37/91/9 43/92/5 36/89/9
f 38/93/9 42/94/5 37/91/9
f 39/9/9 41/95/5 38/93/9
f 25/61/36 2/17/17 1/16/16
f 26/63/36 34/96/35 25/61/36
f 26/63/36 32/97/35 33/98/35
f 28/66/36 32/97/35 27/64/36
f 29/40/36 31/99/35 28/66/36
f 23/100/34 97/101/59 85/102/40
f 97/101/59 58/73/50 101/103/60
f 101/103/60 57/71/48 105/104/61
f 57/71/48 109/105/62 105/104/61
f 109/105/62 55/67/45 113/10/10
f 8/88/22 64/106/47 35/86/9
f 64/106/47 36/89/9 35/86/9
f 63/107/46 37/91/9 36/89/9
f 37/91/9 61/108/52 38/93/9
f 61/108/52 39/9/9 38/93/9
f 68/43/37 40/109/5 11/41/25
f 120/110/6 41/111/5 40/109/5
f 124/112/6 42/113/5 41/111/5
f 132/114/6 42/113/5 128/115/6
f 136/6/6 43/116/5 132/114/6
f 30/117/35 129/118/6 31/119/35
f 133/120/6 130/121/6 129/118/6
f 134/122/6 131/123/6 130/121/6
f 135/124/6 132/114/6 131/123/6
f 32/125/35 129/118/6 125/126/6
f 125/126/6 130/121/6 126/127/6
f 126/127/6 131/123/6 127/128/6
f 127/128/6 132/114/6 128/115/6
f 33/129/35 125/126/6 121/130/6
f 125/126/6 122/131/6 121/130/6
f 126/127/6 123/132/6 122/131/6
f 123/132/6 128/115/6 124/112/6
f 34/133/35 121/130/6 117/134/6
f 117/134/6 122/131/6 118/135/6
f 122/131/6 119/136/6 118/135/6
f 123/132/6 120/110/6 119/136/6
f 2/137/17 117/134/6 65/138/37
f 65/138/37 118/135/6 66/139/37
f 66/139/37 119/136/6 67/140/37
f 67/140/37 120/110/6 68/43/37
f 112/141/63 49/50/38 48/83/57
f 111/142/64 116/143/65 112/141/63
f 110/144/66 115/145/67 111/142/64
f 109/105/62 114/146/68 110/144/66
f 47/84/58 112/141/63 48/83/57
f 108/147/69 111/142/64 112/141/63
f 106/148/70 111/142/64 107/149/71
f 105/104/61 110/144/66 106/148/70
f 104/150/72 47/84/58 46/79/54
f 103/151/73 108/147/69 104/150/72
f 102/152/74 107/149/71 103/151/73
f 101/103/60 106/148/70 102/152/74
f 45/80/55 104/150/72 46/79/54
f 99/153/75 104/150/72 100/154/76
f 98/155/77 103/151/73 99/153/75
f 98/155/77 101/103/60 102/152/74
f 14/76/27 100/154/76 45/80/55
f 88/156/78 99/153/75 100/154/76
f 86/157/79 99/153/75 87/158/80
f 86/157/79 97/101/59 98/155/77
f 18/159/31 96/160/81 16/161/29
f 89/162/82 95/163/83 96/160/81
f 91/164/84 95/163/83 90/165/85
f 92/12/12 94/166/86 91/164/84
f 13/27/26 88/167/78 14/28/27
f 81/168/87 87/169/80 88/167/78
f 82/170/88 86/171/79 87/169/80
f 83/172/89 85/54/40 86/171/79
f 73/173/13 6/174/21 5/175/20
f 73/173/13 79/176/4 80/177/4
f 74/178/13 78/179/4 79/176/4
f 75/180/13 77/46/4 78/179/4
f 65/138/37 3/181/18 2/137/17
f 66/139/37 72/182/90 65/138/37
f 67/140/37 71/183/1 66/139/37
f 68/43/37 70/184/1 67/140/37
f 16/30/29 73/173/13 5/175/20
f 96/185/81 74/178/13 73/173/13
f 74/178/13 94/186/86 75/180/13
f 75/180/13 93/187/41 76/13/13
f 116/143/65 18/159/31 49/50/38
f 115/145/67 89/162/82 116/143/65
f 115/145/67 91/164/84 90/165/85
f 114/146/68 92/12/12 91/164/84
f 30/117/35 80/188/4 133/120/6
f 133/120/6 79/189/4 134/122/6
f 134/122/6 78/190/4 135/124/6
f 135/124/6 77/4/4 136/6/6
f 13/27/26 72/191/90 81/168/87
f 72/191/90 82/170/88 81/168/87
f 82/170/88 70/192/1 83/172/89
f 70/192/1 84/3/3 83/172/89
f 69/1/1 10/24/24 24/2/2
f 77/4/4 9/193/23 44/5/5
f 60/7/7 22/36/33 12/8/8
f 113/10/10 55/67/45 21/11/11
f 76/13/13 93/187/41 20/14/14
f 4/19/19 6/21/21 30/39/35
f 11/41/25 10/194/24 69/42/1
f 13/27/26 15/29/28 1/44/16
f 7/15/15 9/23/23 77/46/4
f 17/47/30 16/195/29 5/20/20
f 12/8/8 11/196/25 40/48/5
f 20/14/14 19/197/32 8/22/22
f 12/8/8 22/36/33 24/38/2
f 49/50/38 18/159/31 17/51/30
f 84/3/3 24/2/2 23/53/34
f 21/11/11 20/198/14 93/55/41
f 59/56/42 23/100/34 22/57/33
f 50/59/39 17/47/30 4/19/19
f 15/60/28 54/199/53 25/61/36
f 25/61/36 54/199/53 53/62/43
f 53/62/43 52/200/56 27/64/36
f 27/64/36 52/200/56 51/65/44
f 51/65/44 50/59/39 29/40/36
f 55/67/45 64/70/47 19/68/32
f 55/67/45 56/72/49 63/69/46
f 57/71/48 62/74/51 63/69/46
f 58/73/50 61/75/52 62/74/51
f 59/56/42 60/58/7 61/75/52
f 14/76/27 45/80/55 54/77/53
f 46/79/54 53/82/43 54/77/53
f 46/79/54 47/84/58 52/81/56
f 48/83/57 51/85/44 52/81/56
f 48/83/57 49/50/38 50/52/39
f 35/86/9 44/90/5 9/87/23
f 36/89/9 43/92/5 44/90/5
f 37/91/9 42/94/5 43/92/5
f 38/93/9 41/95/5 42/94/5
f 39/9/9 40/48/5 41/95/5
f 25/61/36 34/96/35 2/17/17
f 26/63/36 33/98/35 34/96/35
f 26/63/36 27/64/36 32/97/35
f 28/66/36 31/99/35 32/97/35
f 29/40/36 30/39/35 31/99/35
f 23/100/34 59/56/42 97/101/59
f 97/101/59 59/56/42 58/73/50
f 101/103/60 58/73/50 57/71/48
f 57/71/48 56/72/49 109/105/62
f 109/105/62 56/72/49 55/67/45
f 8/88/22 19/33/32 64/106/47
f 64/106/47 63/107/46 36/89/9
f 63/107/46 62/201/51 37/91/9
f 37/91/9 62/201/51 61/108/52
f 61/108/52 60/7/7 39/9/9
f 68/43/37 120/110/6 40/109/5
f 120/110/6 124/112/6 41/111/5
f 124/112/6 128/115/6 42/113/5
f 132/114/6 43/116/5 42/113/5
f 136/6/6 44/5/5 43/116/5
f 30/117/35 133/120/6 129/118/6
f 133/120/6 134/122/6 130/121/6
f 134/122/6 135/124/6 131/123/6
f 135/124/6 136/6/6 132/114/6
f 32/125/35 31/119/35 129/118/6
f 125/126/6 129/118/6 130/121/6
f 126/127/6 130/121/6 131/123/6
f 127/128/6 131/123/6 132/114/6
f 33/129/35 32/125/35 125/126/6
f 125/126/6 126/127/6 122/131/6
f 126/127/6 127/128/6 123/132/6
f 123/132/6 127/128/6 128/115/6
f 34/133/35 33/129/35 121/130/6
f 117/134/6 121/130/6 122/131/6
f 122/131/6 123/132/6 119/136/6
f 123/132/6 124/112/6 120/110/6
f 2/137/17 34/133/35 117/134/6
f 65/138/37 117/134/6 118/135/6
f 66/139/37 118/135/6 119/136/6
f 67/140/37 119/136/6 120/110/6
f 112/141/63 116/143/65 49/50/38
f 111/142/64 115/145/67 116/143/65
f 110/144/66 114/146/68 115/145/67
f 109/105/62 113/10/10 114/146/68
f 47/84/58 108/147/69 112/141/63
f 108/147/69 107/149/71 111/142/64
f 106/148/70 110/144/66 111/142/64
f 105/104/61 109/105/62 110/144/66
f 104/150/72 108/147/69 47/84/58
f 103/151/73 107/149/71 108/147/69
f 102/152/74 106/148/70 107/149/71
f 101/103/60 105/104/61 106/148/70
f 45/80/55 100/154/76 104/150/72
f 99/153/75 103/151/73 104/150/72
f 98/155/77 102/152/74 103/151/73
f 98/155/77 97/101/59 101/103/60
f 14/76/27 88/156/78 100/154/76
f 88/156/78 87/158/80 99/153/75
f 86/157/79 98/155/77 99/153/75
f 86/157/79 85/102/40 97/101/59
f 18/159/31 89/162/82 96/160/81
f 89/162/82 90/165/85 95/163/83
f 91/164/84 94/166/86 95/163/83
f 92/12/12 93/55/41 94/166/86
f 13/27/26 81/168/87 88/167/78
f 81/168/87 82/170/88 87/169/80
f 82/170/88 83/172/89 86/171/79
f 83/172/89 84/3/3 85/54/40
f 73/173/13 80/177/4 6/174/21
f 73/173/13 74/178/13 79/176/4
f 74/178/13 75/180/13 78/179/4
f 75/180/13 76/13/13 77/46/4
f 65/138/37 72/182/90 3/181/18
f 66/139/37 71/183/1 72/182/90
f 67/140/37 70/184/1 71/183/1
f 68/43/37 69/42/1 70/184/1
f 16/30/29 96/185/81 73/173/13
f 96/185/81 95/202/83 74/178/13
f 74/178/13 95/202/83 94/186/86
f 75/180/13 94/186/86 93/187/41
f 116/143/65 89/162/82 18/159/31
f 115/145/67 90/165/85 89/162/82
f 115/145/67 114/146/68 91/164/84
f 114/146/68 113/10/10 92/12/12
f 30/117/35 6/203/21 80/188/4
f 133/120/6 80/188/4 79/189/4
f 134/122/6 79/189/4 78/190/4
f 135/124/6 78/190/4 77/4/4
f 13/27/26 3/45/18 72/191/90
f 72/191/90 71/204/1 82/170/88
f 82/170/88 71/204/1 70/192/1
f 70/192/1 69/1/1 84/3/3
